<?xml version="1.0" encoding="UTF-8"?>
<svg width="21px" height="20px" viewBox="0 0 21 20" version="1.1" xmlns="http://www.w3.org/2000/svg" xmlns:xlink="http://www.w3.org/1999/xlink">
    <!-- Generator: Sketch 58 (84663) - https://sketch.com -->
    <title>ic/image_search</title>
    <desc>Created with Sketch.</desc>
    <defs>
        <path d="M16,11 L16,18 L2,18 L2,4 L7.02,4 C7.07,3.29 7.24,2.62 7.5,2 L2,2 C0.9,2 0,2.9 0,4 L0,18 C0,19.1 0.9,20 2,20 L16,20 C17.1,20 18,19.1 18,18 L18,13 L16,11 Z M12,11.8571429 L7,14.7142857 L7,9 L12,11.8571429 Z M17.3,6.89 C17.74,6.19 18,5.38 18,4.5 C18,2.01 15.99,0 13.5,0 C11.01,0 9,2.01 9,4.5 C9,6.99 11.01,9 13.49,9 C14.37,9 15.19,8.74 15.88,8.3 L19,11.42 L20.42,10 L17.3,6.89 Z M13.5,7 C12.12,7 11,5.88 11,4.5 C11,3.12 12.12,2 13.5,2 C14.88,2 16,3.12 16,4.5 C16,5.88 14.88,7 13.5,7 Z" id="path-1"></path>
    </defs>
    <g id="🛠-Symbols" stroke="none" stroke-width="1" fill="none" fill-rule="evenodd">
        <g id="Sidebar/roi-calculator" transform="translate(-30.000000, -196.000000)">
            <g id="ic/image_search" transform="translate(30.000000, 196.000000)">
                <g id="ic_image_search_24px">
                    <mask id="mask-2" fill="white">
                        <use xlink:href="#path-1"></use>
                    </mask>
                    <use id="Shape" fill="#F5F6F6" fill-rule="nonzero" xlink:href="#path-1"></use>
                </g>
            </g>
        </g>
    </g>
</svg>